 <svg height="48" width="48" xmlns="http://www.w3.org/2000/svg"> <path 
                 d="M13.45 36.75 24 32.35l10.55 4.4V9.25h-21.1Zm-1.3 
                 5.55q-1.15.45-2.2-.2-1.05-.65-1.05-1.85v-31q0-1.9 1.375-3.25t3.175-1.35h21.1q1.8 0 3.2 1.35 1.4 1.35 
                 1.4 3.25v31q0 1.2-1.075 1.85-1.075.65-2.175.2L24 37.25Zm1.3-33.05h21.1H24Z" style="fill:
                 #3d3f59;fill-opacity:1"/>
        </svg>