 <svg height="48" width="48" xmlns="http://www.w3.org/2000/svg"> <path d="M36.35 
                 26.05h-24.7q-.9 0-1.5-.6T9.55 24q0-.85.6-1.475.6-.625 1.5-.625h24.7q.9 0 1.5.625t.6 1.475q0 .85-.6 
                 1.45t-1.5.6Zm-4.5 9.9H7.15q-.9 0-1.5-.625t-.6-1.475q0-.9.6-1.5t1.5-.6h24.7q.9 0 1.5.6t.6 1.5q0 .9-.6 
                 1.5t-1.5.6Zm9-19.75h-24.7q-.85 0-1.475-.6-.625-.6-.625-1.5 0-.85.625-1.475Q15.3 12 16.15 12h24.7q.9 
                 0 1.525.625Q43 13.25 43 14.1q0 .95-.625 1.525t-1.525.575Z" style="fill:#eef1f1;fill-opacity:1"/> 
        </svg>