 <svg height="48" width="48" 
                 xmlns="http://www.w3.org/2000/svg"> <path d="m24 27.2-9.9 
                 9.9q-.7.7-1.625.7t-1.575-.7q-.7-.65-.7-1.575 0-.925.7-1.575L20.8 24l-9.9-9.9q-.65-.65-.65-1.6 
                 0-.95.65-1.6.6-.65 1.55-.65.95 0 1.65.65l9.9 9.95 9.95-10q.65-.65 1.575-.65.925 0 1.625.65.65.7.65 
                 1.625t-.65 1.575l-9.95 9.9 9.9 9.95q.7.7.7 1.625t-.7 1.575q-.65.7-1.6.7-.95 0-1.55-.7Z" 
                 style="fill:#3d3f59;fill-opacity:1"/> </svg>