<svg xmlns="http://www.w3.org/2000/svg" height="48" width="48"><path 
                 d="M9.25 26.95q-1.2 0-2.075-.875Q6.3 25.2 6.3 24q0-1.25.875-2.1.875-.85 2.075-.85 1.2 0 
                 2.1.85.9.85.9 2.05 0 1.25-.9 2.125t-2.1.875Zm14.8 0q-1.25 0-2.125-.875T21.05 
                 24q0-1.25.875-2.1.875-.85 2.075-.85 1.25 0 2.1.85.85.85.85 2.05 0 1.25-.85 2.125t-2.05.875Zm14.7 
                 0q-1.25 0-2.125-.875T35.75 24q0-1.25.875-2.1.875-.85 2.125-.85t2.125.85q.875.85.875 2.05 0 1.25-.875 
                 2.125t-2.125.875Z" style="fill:#3d3f59;fill-opacity:1"/></svg>