 <svg viewBox="0 0 72 72" width="64" height="64" 
                 xmlns="http://www.w3.org/2000/svg"> <path d="M56 48a4 4 0 0 1 0 8H16a4 4 0 0 1 0-8h40zm0-16a4 4 0 0 
                 1 0 8H16a4 4 0 0 1 0-8h40zm0-16a4 4 0 0 1 0 8H16a4 4 0 0 1 0-8h40z" style="fill:
                 #3D3F59;fill-opacity:1"/>
        </svg>