 <svg height="48" width="48" xmlns="http://www.w3.org/2000/svg"> <path d="M18.9 
                 35.85q-.45 0-.875-.175t-.675-.525l-9.05-9q-.65-.65-.65-1.65 0-1 .65-1.65.65-.65 
                 1.625-.65t1.675.65l7.3 7.35 17.5-17.5q.7-.65 1.65-.675.95-.025 1.6.675.7.7.7 1.675 0 .975-.7 
                 1.625L20.5 35.15q-.3.35-.725.525-.425.175-.875.175Z" style="fill:#e5e5e7;fill-opacity:1"/>
        </svg>