 <svg width="96" height="96" xmlns="http://www.w3.org/2000/svg"> <path 
                 style="fill:#dfdfdf;fill-opacity:1;fill-rule:nonzero;stroke:none;stroke-width:1.4853" d="M25.608 
                 43.01c-2.176-2.376-2.698-4.901-1.56-7.575 1.136-2.676 3.295-4.01 6.461-4.01h37.875c3.07 0 5.177 
                 1.334 6.313 4.01 1.138 2.674.616 5.199-1.56 7.575L54.126 61.874c-.595.493-1.337.962-2.228 
                 1.41-.889.446-1.73.666-2.525.666a5.46 5.46 0 0 1-2.6-.667c-.84-.446-1.509-.916-2.008-1.41zm0 0"/> 
                 </svg> 