<svg xmlns="http://www.w3.org/2000/svg" height="48" width="48"><path 
                 d="M11.45 45.25q-1.95 0-3.325-1.375Q6.75 42.5 6.75 40.55V7.45q0-1.95 1.375-3.35Q9.5 2.7 11.45 
                 2.7H29.6l11.7 11.7v26.15q0 1.95-1.4 3.325-1.4 1.375-3.35 
                 1.375Zm15.65-28.5v-9.3H11.45v33.1h25.1v-23.8Zm-15.65-9.3v9.3-9.3 33.1-33.1Z" 
                 style="fill:#dfdfdf;fill-opacity:1"/></svg>