 <svg height="48" width="48" xmlns="http://www.w3.org/2000/svg"> <path d="M23.9 
                 41.05q-7.15 0-12.125-4.975T6.8 24q0-7.1 4.975-12.1t12.125-5q4.45 0 7.95 1.8t6 
                 5.15V8.6q0-.7.45-1.2t1.2-.5q.75 0 1.275.5.525.5.525 1.2v10.25q0 1-.7 1.65-.7.65-1.65.65H28.7q-.75 
                 0-1.225-.45Q27 20.25 27 19.45t.475-1.25q.475-.45 
                 1.225-.45h6.4q-2-2.9-4.725-4.6-2.725-1.7-6.475-1.7-5.25 0-8.9 3.625Q11.35 18.7 11.35 24q0 5.25 3.65 
                 8.875t8.9 3.625q3.45 0 6.55-1.875 3.1-1.875 4.7-5.075.25-.5.9-.85t1.25-.35q1.4 0 2.05.925.65.925 0 
                 2.075-2.1 4.4-6.275 7.05-4.175 2.65-9.175 2.65Z" style="fill:#dfdfdf;fill-opacity:1"/> 
        </svg>